com\mycompany\petshoppi\servlet\FuncionarioExcluir.class
com\mycompany\petshoppi\dao\ClienteDAO.class
com\mycompany\petshoppi\bd\Config.class
com\mycompany\petshoppi\Entidade\Produto.class
com\mycompany\petshoppi\servlet\ProdutoServlet.class
com\mycompany\petshoppi\servlet\ProdutoExcluir.class
com\mycompany\petshoppi\dao\FilialDAO.class
com\mycompany\petshoppi\Entidade\Funcionario.class
com\mycompany\petshoppi\JAXRSConfiguration.class
com\mycompany\petshoppi\Entidade\Filial.class
com\mycompany\petshoppi\Entidade\Financeiro.class
com\mycompany\petshoppi\servlet\AlterarCliente.class
com\mycompany\petshoppi\dao\ProdutoDAO.class
com\mycompany\petshoppi\dao\FuncionarioDAO.class
com\mycompany\petshoppi\servlet\FuncionarioServlet.class
com\mycompany\petshoppi\servlet\ProdutoAlterar.class
com\mycompany\petshoppi\Entidade\Login.class
com\mycompany\petshoppi\resources\JavaEE8Resource.class
com\mycompany\petshoppi\Entidade\Clientes.class
com\mycompany\petshoppi\servlet\FuncionarioAlterar.class
com\mycompany\petshoppi\servlet\ExcluirCliente.class
com\mycompany\petshoppi\util\Utils.class
com\mycompany\petshoppi\Entidade\Venda.class
com\mycompany\petshoppi\servlet\ClientesServlet.class
com\mycompany\petshoppi\util\Conexao.class
